[
  {
    "id": 1,
    "callerNumber": "987564",
    "callerName": "Mohamed Farag Bidder Harb",
    "governorate": "governorate 1",
    "area": "area 1",
    "block": "block 1",
    "street": "street 1",
    "callStatus": "start",
    "customerServiceName": "MFC",
    "customerServiceId": "1234",
    "customerDescription": "I have a big Problem and need Maintenance",
    "fk_callPriority_id": "11",
    "FK_callType_id": "11"
  },
  {
    "id": 2,
    "callerNumber": "987564",
    "callerName": "Mohamed Farag Bidder Harb",
    "governorate": "governorate 1",
    "area": "area 1",
    "block": "block 1",
    "street": "street 1",
    "callStatus": "start",
    "customerServiceName": "MFC",
    "customerServiceId": "1234",
    "customerDescription": "I have a big Problem and need Maintenance",
    "fk_callPriority_id": "11",
    "fk_callType_id": "11"
  }
]

