<svg width="48" height="48" viewBox="0 0 64 64" version="1.1" xmlns="http://www.w3.org/2000/svg" xmlns:xlink="http://www.w3.org/1999/xlink">
    <path d="M31.976,40.433A17.991,17.991,0,1,1,49.963,22.442,18.013,18.013,0,0,1,31.976,40.433Z" fill="#006400"/>
<g id="Page-1">
        <g id="pin">
      <path id="Shape" d="M31.976,0A22.442,22.442,0,0,0,9.534,22.442a22.116,22.116,0,0,0,.192,2.79c1.917,17.53,20.793,37.735,20.793,37.735a3.494,3.494,0,0,0,.972.776l.016.008.629.2.628-.2.017-.008a3.731,3.731,0,0,0,.972-.776s18.6-20.241,20.477-37.775A22.3,22.3,0,0,0,31.976,0Zm0,40.433A17.991,17.991,0,1,1,49.963,22.442,18.013,18.013,0,0,1,31.976,40.433Z" fill="#40e0d0" fill-rule="nonzero"></path>
	<g id="onHold">
	  <circle id="Oval" cx="32" cy="40" r="11" fill="#d0021b"/>
	  <rect x="26.5" y="34" width="4" height="12" fill="#fff"/>
	  <rect x="33.5" y="34" width="4" height="12" fill="#fff"/>
	</g>
            <g id="VDN" style="isolation: isolate">
        <text transform="translate(20.564 25.679)" font-size="9.745" font-family="Arial-Black, Arial Black" font-weight="800" fill="#ffffff" style="isolation: isolate">VDN</text>
      </g>
        </g>
    </g>
</svg>